
=====
===== LOGGING STARTED Tue Dec 11 21:05:43 -05 2018
=====
Exec: /Users/EinerZG/Kommit/study_kommit/Book_Elixir_in_Action/todo/rel/todo/erts-10.1.2/bin/erlexec -boot /Users/EinerZG/Kommit/study_kommit/Book_Elixir_in_Action/todo/rel/todo/releases/0.1.0/todo -config /Users/EinerZG/Kommit/study_kommit/Book_Elixir_in_Action/todo/rel/todo/running-config/sys.config -boot_var ERTS_LIB_DIR /Users/EinerZG/Kommit/study_kommit/Book_Elixir_in_Action/todo/rel/todo/erts-10.1.2/../lib -env ERL_LIBS /Users/EinerZG/Kommit/study_kommit/Book_Elixir_in_Action/todo/rel/todo/lib -pa /Users/EinerZG/Kommit/study_kommit/Book_Elixir_in_Action/todo/rel/todo/lib/todo-0.1.0/consolidated -args_file /Users/EinerZG/Kommit/study_kommit/Book_Elixir_in_Action/todo/rel/todo/running-config/vm.args -mode embedded -user Elixir.IEx.CLI -extra --no-halt +iex -- console
Root: /Users/EinerZG/Kommit/study_kommit/Book_Elixir_in_Action/todo/rel/todo
/Users/EinerZG/Kommit/study_kommit/Book_Elixir_in_Action/todo/rel/todo
Erlang/OTP 21 [erts-10.1.2] [source] [64-bit] [smp:4:4] [ds:4:4:10] [async-threads:1] [hipe] [dtrace]

Starting the database worker 1
Nombre nodo:  todo
Starting the database worker 2
Nombre nodo:  todo
Starting the database worker 3
Nombre nodo:  todo

21:05:43.753 [warn]  Setting Ranch options together with socket options is deprecated. Please use the new map syntax that allows specifying socket options separately from other options.

Interactive Elixir (1.7.4) - press Ctrl+C to exit (type h() ENTER for help)
iex(todo@127.0.0.1)1> 
=====
===== LOGGING STARTED Tue Dec 11 21:10:11 -05 2018
=====
Exec: /Users/EinerZG/Kommit/study_kommit/Book_Elixir_in_Action/todo/rel/todo/erts-10.1.2/bin/erlexec -boot /Users/EinerZG/Kommit/study_kommit/Book_Elixir_in_Action/todo/rel/todo/releases/0.1.0/todo -config /Users/EinerZG/Kommit/study_kommit/Book_Elixir_in_Action/todo/rel/todo/running-config/sys.config -boot_var ERTS_LIB_DIR /Users/EinerZG/Kommit/study_kommit/Book_Elixir_in_Action/todo/rel/todo/erts-10.1.2/../lib -env ERL_LIBS /Users/EinerZG/Kommit/study_kommit/Book_Elixir_in_Action/todo/rel/todo/lib -pa /Users/EinerZG/Kommit/study_kommit/Book_Elixir_in_Action/todo/rel/todo/lib/todo-0.1.0/consolidated -args_file /Users/EinerZG/Kommit/study_kommit/Book_Elixir_in_Action/todo/rel/todo/running-config/vm.args -mode embedded -user Elixir.IEx.CLI -extra --no-halt +iex -- console
Root: /Users/EinerZG/Kommit/study_kommit/Book_Elixir_in_Action/todo/rel/todo
/Users/EinerZG/Kommit/study_kommit/Book_Elixir_in_Action/todo/rel/todo
Protocol 'inet_tcp': the name todo@127.0.0.1 seems to be in use by another Erlang node
